%YAML 1.1
%TAG !u! tag:unity3d.com,2011:
--- !u!212 &2424764151386404173
SpriteRenderer:
  m_ObjectHideFlags: 0
  m_CorrespondingSourceObject: {fileID: 0}
  m_PrefabInstance: {fileID: 0}
  m_PrefabAsset: {fileID: 0}
  m_GameObject: {fileID: 163852597158130982}
  m_Enabled: 1
  m_CastShadows: 0
  m_ReceiveShadows: 0
  m_DynamicOccludee: 1
  m_MotionVectors: 1
  m_LightProbeUsage: 1
  m_ReflectionProbeUsage: 1
  m_RayTracingMode: 0
  m_RenderingLayerMask: 1
  m_RendererPriority: 0
  m_Materials:
  - {fileID: 10754, guid: 0000000000000000f000000000000000, type: 0}
  m_StaticBatchInfo:
    firstSubMesh: 0
    subMeshCount: 0
  m_StaticBatchRoot: {fileID: 0}
  m_ProbeAnchor: {fileID: 0}
  m_LightProbeVolumeOverride: {fileID: 0}
  m_ScaleInLightmap: 1
  m_ReceiveGI: 1
  m_PreserveUVs: 0
  m_IgnoreNormalsForChartDetection: 0
  m_ImportantGI: 0
  m_StitchLightmapSeams: 1
  m_SelectedEditorRenderState: 0
  m_MinimumChartSize: 4
  m_AutoUVMaxDistance: 0.5
  m_AutoUVMaxAngle: 89
  m_LightmapParameters: {fileID: 0}
  m_SortingLayerID: 0
  m_SortingLayer: 0
  m_SortingOrder: 0
  m_Sprite: {fileID: 21300000, guid: fe7d5e98763e51146bc585086c6ad883, type: 3}
  m_Color: {r: 1, g: 1, b: 1, a: 1}
  m_FlipX: 0
  m_FlipY: 0
  m_DrawMode: 0
  m_Size: {x: 1.3333334, y: 1.3333334}
  m_AdaptiveModeThreshold: 0.5
  m_SpriteTileMode: 0
  m_WasSpriteAssigned: 1
  m_MaskInteraction: 0
  m_SpriteSortPoint: 0
--- !u!1001 &3502393160707392247
PrefabInstance:
  m_ObjectHideFlags: 0
  serializedVersion: 2
  m_Modification:
    m_TransformParent: {fileID: 0}
    m_Modifications:
    - target: {fileID: 3665119843693787089, guid: 444ac0fec769f1b42af30611f9c8cab1,
        type: 3}
      propertyPath: m_Name
      value: AsteroidBig
      objectReference: {fileID: 0}
    - target: {fileID: 3674433671649302122, guid: 444ac0fec769f1b42af30611f9c8cab1,
        type: 3}
      propertyPath: m_Radius
      value: 0.6
      objectReference: {fileID: 0}
    - target: {fileID: 5322727913750877131, guid: 444ac0fec769f1b42af30611f9c8cab1,
        type: 3}
      propertyPath: m_LocalPosition.x
      value: 0
      objectReference: {fileID: 0}
    - target: {fileID: 5322727913750877131, guid: 444ac0fec769f1b42af30611f9c8cab1,
        type: 3}
      propertyPath: m_LocalPosition.y
      value: 0
      objectReference: {fileID: 0}
    - target: {fileID: 5322727913750877131, guid: 444ac0fec769f1b42af30611f9c8cab1,
        type: 3}
      propertyPath: m_LocalPosition.z
      value: 0
      objectReference: {fileID: 0}
    - target: {fileID: 5322727913750877131, guid: 444ac0fec769f1b42af30611f9c8cab1,
        type: 3}
      propertyPath: m_LocalRotation.x
      value: 0
      objectReference: {fileID: 0}
    - target: {fileID: 5322727913750877131, guid: 444ac0fec769f1b42af30611f9c8cab1,
        type: 3}
      propertyPath: m_LocalRotation.y
      value: 0
      objectReference: {fileID: 0}
    - target: {fileID: 5322727913750877131, guid: 444ac0fec769f1b42af30611f9c8cab1,
        type: 3}
      propertyPath: m_LocalRotation.z
      value: 0
      objectReference: {fileID: 0}
    - target: {fileID: 5322727913750877131, guid: 444ac0fec769f1b42af30611f9c8cab1,
        type: 3}
      propertyPath: m_LocalRotation.w
      value: 1
      objectReference: {fileID: 0}
    - target: {fileID: 5322727913750877131, guid: 444ac0fec769f1b42af30611f9c8cab1,
        type: 3}
      propertyPath: m_RootOrder
      value: 0
      objectReference: {fileID: 0}
    - target: {fileID: 5322727913750877131, guid: 444ac0fec769f1b42af30611f9c8cab1,
        type: 3}
      propertyPath: m_LocalEulerAnglesHint.x
      value: 0
      objectReference: {fileID: 0}
    - target: {fileID: 5322727913750877131, guid: 444ac0fec769f1b42af30611f9c8cab1,
        type: 3}
      propertyPath: m_LocalEulerAnglesHint.y
      value: 0
      objectReference: {fileID: 0}
    - target: {fileID: 5322727913750877131, guid: 444ac0fec769f1b42af30611f9c8cab1,
        type: 3}
      propertyPath: m_LocalEulerAnglesHint.z
      value: 0
      objectReference: {fileID: 0}
    - target: {fileID: 5801564699203862155, guid: 444ac0fec769f1b42af30611f9c8cab1,
        type: 3}
      propertyPath: movementForce
      value: 30
      objectReference: {fileID: 0}
    - target: {fileID: 9030506177852807425, guid: 444ac0fec769f1b42af30611f9c8cab1,
        type: 3}
      propertyPath: m_Mass
      value: 1.1309735
      objectReference: {fileID: 0}
    m_RemovedComponents: []
  m_SourcePrefab: {fileID: 100100000, guid: 444ac0fec769f1b42af30611f9c8cab1, type: 3}
--- !u!1 &163852597158130982 stripped
GameObject:
  m_CorrespondingSourceObject: {fileID: 3665119843693787089, guid: 444ac0fec769f1b42af30611f9c8cab1,
    type: 3}
  m_PrefabInstance: {fileID: 3502393160707392247}
  m_PrefabAsset: {fileID: 0}
